%YAML 1.1
%TAG !u! tag:unity3d.com,2011:
--- !u!1001 &8649814167838967390
PrefabInstance:
  m_ObjectHideFlags: 0
  serializedVersion: 2
  m_Modification:
    m_TransformParent: {fileID: 0}
    m_Modifications:
    - target: {fileID: 4601627390966528397, guid: 4ddccd28ea1a4b74eba6edf6e3c180b1, type: 3}
      propertyPath: recipe.inputResources.Array.size
      value: 2
      objectReference: {fileID: 0}
    - target: {fileID: 4601627390966528397, guid: 4ddccd28ea1a4b74eba6edf6e3c180b1, type: 3}
      propertyPath: recipe.outputResources.Array.size
      value: 1
      objectReference: {fileID: 0}
    - target: {fileID: 4601627390966528397, guid: 4ddccd28ea1a4b74eba6edf6e3c180b1, type: 3}
      propertyPath: recipe.inputResources.Array.data[0].resourceName
      value: Cyprite
      objectReference: {fileID: 0}
    - target: {fileID: 4601627390966528397, guid: 4ddccd28ea1a4b74eba6edf6e3c180b1, type: 3}
      propertyPath: recipe.inputResources.Array.data[0].resourceCount
      value: 4
      objectReference: {fileID: 0}
    - target: {fileID: 4601627390966528397, guid: 4ddccd28ea1a4b74eba6edf6e3c180b1, type: 3}
      propertyPath: recipe.inputResources.Array.data[1].resourceName
      value: Corditia
      objectReference: {fileID: 0}
    - target: {fileID: 4601627390966528397, guid: 4ddccd28ea1a4b74eba6edf6e3c180b1, type: 3}
      propertyPath: recipe.inputResources.Array.data[1].resourceCount
      value: 4
      objectReference: {fileID: 0}
    - target: {fileID: 4601627390966528397, guid: 4ddccd28ea1a4b74eba6edf6e3c180b1, type: 3}
      propertyPath: recipe.outputResources.Array.data[0].resourceName
      value: Nanoglass
      objectReference: {fileID: 0}
    - target: {fileID: 4601627390966528397, guid: 4ddccd28ea1a4b74eba6edf6e3c180b1, type: 3}
      propertyPath: recipe.outputResources.Array.data[0].resourceCount
      value: 5
      objectReference: {fileID: 0}
    - target: {fileID: 4601627390966528397, guid: 4ddccd28ea1a4b74eba6edf6e3c180b1, type: 3}
      propertyPath: productionRate
      value: 8
      objectReference: {fileID: 0}
    - target: {fileID: 8873402111558913281, guid: 4ddccd28ea1a4b74eba6edf6e3c180b1, type: 3}
      propertyPath: m_LocalPosition.x
      value: -7.3136263
      objectReference: {fileID: 0}
    - target: {fileID: 8873402111558913281, guid: 4ddccd28ea1a4b74eba6edf6e3c180b1, type: 3}
      propertyPath: m_LocalPosition.y
      value: -3.7520535
      objectReference: {fileID: 0}
    - target: {fileID: 8873402111558913281, guid: 4ddccd28ea1a4b74eba6edf6e3c180b1, type: 3}
      propertyPath: m_LocalPosition.z
      value: 5.308109
      objectReference: {fileID: 0}
    - target: {fileID: 8873402111558913281, guid: 4ddccd28ea1a4b74eba6edf6e3c180b1, type: 3}
      propertyPath: m_LocalRotation.x
      value: 0
      objectReference: {fileID: 0}
    - target: {fileID: 8873402111558913281, guid: 4ddccd28ea1a4b74eba6edf6e3c180b1, type: 3}
      propertyPath: m_LocalRotation.y
      value: 0
      objectReference: {fileID: 0}
    - target: {fileID: 8873402111558913281, guid: 4ddccd28ea1a4b74eba6edf6e3c180b1, type: 3}
      propertyPath: m_LocalRotation.z
      value: 0
      objectReference: {fileID: 0}
    - target: {fileID: 8873402111558913281, guid: 4ddccd28ea1a4b74eba6edf6e3c180b1, type: 3}
      propertyPath: m_LocalRotation.w
      value: 1
      objectReference: {fileID: 0}
    - target: {fileID: 8873402111558913281, guid: 4ddccd28ea1a4b74eba6edf6e3c180b1, type: 3}
      propertyPath: m_RootOrder
      value: 0
      objectReference: {fileID: 0}
    - target: {fileID: 8873402111558913281, guid: 4ddccd28ea1a4b74eba6edf6e3c180b1, type: 3}
      propertyPath: m_LocalEulerAnglesHint.x
      value: 0
      objectReference: {fileID: 0}
    - target: {fileID: 8873402111558913281, guid: 4ddccd28ea1a4b74eba6edf6e3c180b1, type: 3}
      propertyPath: m_LocalEulerAnglesHint.y
      value: 0
      objectReference: {fileID: 0}
    - target: {fileID: 8873402111558913281, guid: 4ddccd28ea1a4b74eba6edf6e3c180b1, type: 3}
      propertyPath: m_LocalEulerAnglesHint.z
      value: 0
      objectReference: {fileID: 0}
    - target: {fileID: 8877098691682999097, guid: 4ddccd28ea1a4b74eba6edf6e3c180b1, type: 3}
      propertyPath: m_Name
      value: Nanoglass Processing
      objectReference: {fileID: 0}
    m_RemovedComponents: []
  m_SourcePrefab: {fileID: 100100000, guid: 4ddccd28ea1a4b74eba6edf6e3c180b1, type: 3}
