%YAML 1.1
%TAG !u! tag:unity3d.com,2011:
--- !u!114 &11400000
MonoBehaviour:
  m_ObjectHideFlags: 0
  m_CorrespondingSourceObject: {fileID: 0}
  m_PrefabInstance: {fileID: 0}
  m_PrefabAsset: {fileID: 0}
  m_GameObject: {fileID: 0}
  m_Enabled: 1
  m_EditorHideFlags: 0
  m_Script: {fileID: 11500000, guid: 2180b15e962a46e46beb553ebbcf87e0, type: 3}
  m_Name: GameLevelData
  m_EditorClassIdentifier: 
  data:
  - levelTitle: Level Template
    levelDesc: This is a template level, which should not be playable.
