%YAML 1.1
%TAG !u! tag:unity3d.com,2011:
--- !u!114 &11400000
MonoBehaviour:
  m_ObjectHideFlags: 0
  m_CorrespondingSourceObject: {fileID: 0}
  m_PrefabInstance: {fileID: 0}
  m_PrefabAsset: {fileID: 0}
  m_GameObject: {fileID: 0}
  m_Enabled: 1
  m_EditorHideFlags: 0
  m_Script: {fileID: 11500000, guid: 77c7365b53029af46b5093ce14d13806, type: 3}
  m_Name: TestEnemyResourceData
  m_EditorClassIdentifier: 
  data:
  - resourceName: Ignite
    resourceSprite: {fileID: 0}
    resourceStartingCount: 0
  - resourceName: Ignite Plating
    resourceSprite: {fileID: 0}
    resourceStartingCount: 0
